{
  "models": [
    {
      "name": "RateABook",
      "id": "c0bf6a8e-91ef-40db-a68a-7aa7ec1ce9b0",
      "generator": "random(edge_coverage(100))",
      "actions": [
        "rating=1"
      ],
      "vertices": [
        {
          "id": "n1",
          "name": "v_BrowserStarted",
          "actions": [
            "addToWish=false"
          ],
          "requirements": [],
          "properties": {
            "x": -250.67022268429852,
            "y": -120.93905528589815
          }
        },
        {
          "id": "n2",
          "name": "v_BaseURL",
          "sharedState": "HOME",
          "actions": [],
          "requirements": [],
          "properties": {
            "x": -269.06765545580566,
            "y": 69.90555414361378
          }
        },
        {
          "id": "9dbd06b2-d903-448b-93ca-1df4e8f674cb",
          "name": "v_MyBooks",
          "sharedState": "MyBooks",
          "actions": [],
          "requirements": [],
          "properties": {
            "x": 480.6412473093373,
            "y": 337.4072722424477
          }
        }
      ],
      "edges": [
        {
          "id": "960b6c60-7896-11ea-8c87-010078a2bc20",
          "name": "e_StartBrowser",
          "actions": [],
          "requirements": [],
          "properties": [],
          "sourceVertexId": "n1",
          "targetVertexId": "n1"
        },
        {
          "id": "d9367507-73b1-40ee-bd8f-d4c85cd78e1a",
          "name": "e_HomePage",
          "guard": "rating==1",
          "actions": [],
          "requirements": [],
          "properties": [],
          "sourceVertexId": "9dbd06b2-d903-448b-93ca-1df4e8f674cb",
          "targetVertexId": "n2"
        },
        {
          "id": "e1",
          "name": "e_EnterBaseURL",
          "actions": [],
          "requirements": [],
          "properties": [],
          "sourceVertexId": "n1",
          "targetVertexId": "n2"
        },
        {
          "id": "369c4fdf-705d-4128-8f78-2ad9015065c6",
          "name": "e_MyBooks",
          "guard": "rating==1",
          "actions": [],
          "requirements": [],
          "properties": [],
          "sourceVertexId": "n2",
          "targetVertexId": "9dbd06b2-d903-448b-93ca-1df4e8f674cb"
        },
        {
          "id": "b3fb8aaf-a817-4610-96ef-456d66cb3851",
          "name": "e_rateTo1",
          "guard": "rating==5",
          "actions": [
            "rating=1"
          ],
          "requirements": [],
          "properties": [],
          "sourceVertexId": "9dbd06b2-d903-448b-93ca-1df4e8f674cb",
          "targetVertexId": "9dbd06b2-d903-448b-93ca-1df4e8f674cb"
        },
        {
          "id": "de6ffac4-55be-4854-a7cc-031751e993ac",
          "name": "e_rateTo5",
          "guard": "rating==1",
          "actions": [
            "rating=5"
          ],
          "requirements": [],
          "properties": [],
          "sourceVertexId": "9dbd06b2-d903-448b-93ca-1df4e8f674cb",
          "targetVertexId": "9dbd06b2-d903-448b-93ca-1df4e8f674cb"
        }
      ],
      "startElementId": "960b6c60-7896-11ea-8c87-010078a2bc20"
    }
  ]
}
